Calculates Hypo/Hyperglycemic episodes with summary statistics — episode_calculation • iglu
…
    See also

    epicalc_profile()

    Author

    Elizabeth Chun, Jung Hoon Seo, Johnathan Shih

    Examples

episode_calculation(example_data_5_subject, lv1_hypo=100, lv1_hyper= 120)
#> # A tibble: 35 × 7
#>    id        type  level avg_ep_per_day avg_ep_duration avg_ep_gl total_episodes
#>    <fct>     <chr> <chr>          <dbl>           <dbl>     <dbl>          <dbl>
#>  1 Subject 1 hypo  lv1            2.88             130.      92.9             32
#>  2 Subject 1 hypo  lv2            0                  0       NA                0
#>  3 Subject 1 hypo  exte…          1.08             243.      92.1             12
#>  4 Subject 1 hyper lv1            3.42             170.     143.              38
#>  5 Subject 1 hyper lv2            0.180             30      264.               2
#>  6 Subject 1 hypo  lv1_…          2.88             130.      92.9             32
#>  7 Subject 1 hyper lv1_…          3.33             166.     141.              37
#>  8 Subject 2 hypo  lv1            0.102             50       94.6              1
#>  9 Subject 2 hypo  lv2            0                  0       NA                0
#> 10 Subject 2 hypo  exte…          0                  0       NA                0
#> # ℹ 25 more rows
…
