Plot meal metrics visualization — plot_meals • iglu
…
#> No mealtimes found for subject: 1636-70-1010
#> No mealtimes found for subject: 2133-015
#> No mealtimes found for subject: 2133-017
#> No mealtimes found for subject: 2133-019
#> No mealtimes found for subject: 2133-021
#> No mealtimes found for subject: 2133-024
#> No mealtimes found for subject: 2133-027
#> No mealtimes found for subject: 2133-035
#> No mealtimes found for subject: 2133-036
#> Warning: There was 1 warning in `dplyr::reframe()`.
#> ℹ In argument: `meal_metrics_single(...)`.
#> ℹ In group 9: `id = "2133-004"`.
#> Caused by warning in `meal_metrics_single()`:
#> ! Some meals don't match with CGM readings. Mealtimes returned with NA for metric values
#> # A tibble: 25 × 11
#>    id           time                meal  deltag deltat basereco basegl peakgl
#>    <chr>        <dttm>              <chr>  <dbl>  <dbl>    <dbl>  <dbl>  <dbl>
#>  1 1636-69-001  NA                  NA      NA       NA   NA        NA     NA 
#>  2 1636-69-026  NA                  NA      NA       NA   NA        NA     NA 
#>  3 1636-69-032  NA                  NA      NA       NA   NA        NA     NA 
#>  4 1636-69-090  NA                  NA      NA       NA   NA        NA     NA 
#>  5 1636-69-091  NA                  NA      NA       NA   NA        NA     NA 
#>  6 1636-69-114  NA                  NA      NA       NA   NA        NA     NA 
#>  7 1636-70-1005 NA                  NA      NA       NA   NA        NA     NA 
#>  8 1636-70-1010 NA                  NA      NA       NA   NA        NA     NA 
#>  9 2133-004     2016-09-23 10:10:00 CF 1    87.8     80    0.362   135.   223.
#> 10 2133-004     2016-09-27 09:40:00 PB 1    NA       NA   NA        NA     NA 
#> # ℹ 15 more rows
#> # ℹ 3 more variables: recovergl <dbl>, peaktime <dttm>, recovertime <dttm>
…
