Calculate the Rate of Change at each time point (ROC) — roc • iglu
…
    Clarke et al. (2009) Statistical Tools to Analyze Continuous Glucose Monitor Data,
Diabetes
Diabetes Technology and Therapeutics 11 S45-S54,
doi:10.1089/dia.2008.0138
.

    Author

    Elizabeth Chun, David Buchanan

    Examples

data(example_data_1_subject)
roc(example_data_1_subject)
#> # A tibble: 4,032 × 2
#>    id          roc
#>    <fct>     <dbl>
#>  1 Subject 1    NA
#>  2 Subject 1    NA
#>  3 Subject 1    NA
#>  4 Subject 1    NA
#>  5 Subject 1    NA
#>  6 Subject 1    NA
#>  7 Subject 1    NA
#>  8 Subject 1    NA
#>  9 Subject 1    NA
#> 10 Subject 1    NA
#> # ℹ 4,022 more rows
roc(example_data_1_subject, timelag = 10)
#> # A tibble: 4,032 × 2
#>    id          roc
#>    <fct>     <dbl>
#>  1 Subject 1    NA
#>  2 Subject 1    NA
#>  3 Subject 1    NA
#>  4 Subject 1    NA
#>  5 Subject 1    NA
#>  6 Subject 1    NA
#>  7 Subject 1    NA
#>  8 Subject 1    NA
#>  9 Subject 1    NA
#> 10 Subject 1    NA
#> # ℹ 4,022 more rows

data(example_data_5_subject)
roc(example_data_5_subject)
#> # A tibble: 18,720 × 2
#>    id          roc
#>    <fct>     <dbl>
#>  1 Subject 1    NA
#>  2 Subject 1    NA
#>  3 Subject 1    NA
#>  4 Subject 1    NA
#>  5 Subject 1    NA
#>  6 Subject 1    NA
#>  7 Subject 1    NA
#>  8 Subject 1    NA
#>  9 Subject 1    NA
#> 10 Subject 1    NA
#> # ℹ 18,710 more rows
…
